idx, idxlabel, char, charlabel
84,4, [, O
1,4,1, O
86,4, ], O
101,4,  , O
53,0, R, A
75,0, ., A
101,0,  , A
37,0, B, A
10,0, a, A
27,0, r, A
35,0, z, A
18,0, i, A
21,0, l, A
10,0, a, A
34,0, y, A
101,0,  , A
10,0, a, A
23,0, n, A
13,0, d, A
101,0,  , A
48,0, M, A
75,0, ., A
101,0,  , A
40,0, E, A
21,0, l, A
17,0, h, A
10,0, a, A
13,0, d, A
10,0, a, A
13,0, d, A
75,0, ., A
101,0,  , A
56,1, U, T
28,1, s, T
18,1, i, T
23,1, n, T
16,1, g, T
101,1,  , T
21,1, l, T
14,1, e, T
33,1, x, T
18,1, i, T
12,1, c, T
10,1, a, T
21,1, l, T
101,1,  , T
12,1, c, T
17,1, h, T
10,1, a, T
18,1, i, T
23,1, n, T
28,1, s, T
101,1,  , T
15,1, f, T
24,1, o, T
27,1, r, T
101,1,  , T
29,1, t, T
14,1, e, T
33,1, x, T
29,1, t, T
101,1,  , T
28,1, s, T
30,1, u, T
22,1, m, T
22,1, m, T
10,1, a, T
27,1, r, T
18,1, i, T
35,1, z, T
10,1, a, T
29,1, t, T
18,1, i, T
24,1, o, T
23,1, n, T
75,1, ., T
101,1,  , T
36,2, A, J
13,2, d, J
31,2, v, J
10,2, a, J
23,2, n, J
12,2, c, J
14,2, e, J
28,2, s, J
101,2,  , J
18,2, i, J
23,2, n, J
101,2,  , J
10,2, a, J
30,2, u, J
29,2, t, J
24,2, o, J
22,2, m, J
10,2, a, J
29,2, t, J
18,2, i, J
12,2, c, J
101,2,  , J
29,2, t, J
14,2, e, J
33,2, x, J
29,2, t, J
101,2,  , J
28,2, s, J
30,2, u, J
22,2, m, J
22,2, m, J
10,2, a, J
27,2, r, J
18,2, i, J
35,2, z, J
10,2, a, J
29,2, t, J
18,2, i, J
24,2, o, J
23,2, n, J
73,2," ,",J
101,2,  , J
25,2, p, J
10,2, a, J
16,2, g, J
14,2, e, J
28,2, s, J
101,2,  , J
1,2,1, J
1,2,1, J
1,2,1, J
1,2,1, J
2,2,2, J
1,2,1, J
73,2,",",J
101,2,  , J
1,3,1, D
9,3,9, D
9,3,9, D
9,3,9, D
75,3, ., D
101,3,  , D
101,4,  , O
84,4, [, O
2,4,2, O
86,4, ], O
101,4,  , O
36,0, A, A
75,0, ., A
101,0,  , A
37,0, B, A
24,0, o, A
24,0, o, A
20,0, k, A
28,0, s, A
29,0, t, A
14,0, e, A
18,0, i, A
23,0, n, A
73,0,",",A
101,0,  , A
54,0, S, A
75,0, ., A
101,0,  , A
55,0, T, A
75,0, ., A
101,0,  , A
46,0, K, A
21,0, l, A
14,0, e, A
18,0, i, A
23,0, n, A
73,0,",",A
101,0,  , A
10,0, a, A
23,0, n, A
13,0, d, A
101,0,  , A
55,0, T, A
75,0, ., A
101,0,  , A
53,0, R, A
10,0, a, A
18,0, i, A
29,0, t, A
10,0, a, A
75,0, ., A
101,0,  , A
39,1, D, T
14,1, e, T
29,1, t, T
14,1, e, T
12,1, c, T
29,1, t, T
18,1, i, T
23,1, n, T
16,1, g, T
101,1,  , T
12,1, c, T
24,1, o, T
23,1, n, T
29,1, t, T
14,1, e, T
23,1, n, T
29,1, t, T
74,1, -, T
101,1,  , T
11,1, b, T
14,1, e, T
10,1, a, T
27,1, r, T
18,1, i, T
23,1, n, T
16,1, g, T
101,1,  , T
32,1, w, T
24,1, o, T
27,1, r, T
13,1, d, T
28,1, s, T
101,1,  , T
11,1, b, T
34,1, y, T
101,1,  , T
28,1, s, T
14,1, e, T
27,1, r, T
18,1, i, T
10,1, a, T
21,1, l, T
101,1,  , T
12,1, c, T
21,1, l, T
30,1, u, T
28,1, s, T
29,1, t, T
14,1, e, T
27,1, r, T
18,1, i, T
23,1, n, T
16,1, g, T
101,1,  , T
14,1, e, T
33,1, x, T
29,1, t, T
14,1, e, T
23,1, n, T
13,1, d, T
14,1, e, T
13,1, d, T
101,1,  , T
10,1, a, T
11,1, b, T
28,1, s, T
29,1, t, T
27,1, r, T
10,1, a, T
12,1, c, T
29,1, t, T
75,1, ., T
101,1,  , T
44,2, I, J
23,2, n, J
101,2,  , J
51,2, P, J
27,2, r, J
24,2, o, J
12,2, c, J
14,2, e, J
14,2, e, J
13,2, d, J
18,2, i, J
23,2, n, J
16,2, g, J
28,2, s, J
101,2,  , J
24,2, o, J
15,2, f, J
101,2,  , J
29,2, t, J
17,2, h, J
14,2, e, J
101,2,  , J
1,2,1, J
8,2,8, J
29,2, t, J
17,2, h, J
101,2,  , J
36,2, A, J
23,2, n, J
23,2, n, J
30,2, u, J
10,2, a, J
21,2, l, J
101,2,  , J
44,2, I, J
23,2, n, J
29,2, t, J
14,2, e, J
27,2, r, J
23,2, n, J
10,2, a, J
29,2, t, J
18,2, i, J
24,2, o, J
23,2, n, J
10,2, a, J
21,2, l, J
101,2,  , J
36,2, A, J
38,2, C, J
48,2, M, J
101,2,  , J
54,2, S, J
44,2, I, J
74,2, -, J
101,2,  , J
42,2, G, J
44,2, I, J
53,2, R, J
101,2,  , J
38,2, C, J
24,2, o, J
23,2, n, J
15,2, f, J
14,2, e, J
27,2, r, J
14,2, e, J
23,2, n, J
12,2, c, J
14,2, e, J
101,2,  , J
24,2, o, J
23,2, n, J
101,2,  , J
53,2, R, J
14,2, e, J
28,2, s, J
14,2, e, J
10,2, a, J
27,2, r, J
12,2, c, J
17,2, h, J
101,2,  , J
10,2, a, J
23,2, n, J
13,2, d, J
101,2,  , J
39,2, D, J
14,2, e, J
31,2, v, J
14,2, e, J
21,2, l, J
24,2, o, J
25,2, p, J
22,2, m, J
14,2, e, J
23,2, n, J
29,2, t, J
101,2,  , J
18,2, i, J
23,2, n, J
101,2,  , J
44,2, I, J
23,2, n, J
15,2, f, J
24,2, o, J
27,2, r, J
22,2, m, J
10,2, a, J
74,2, -, J
101,2,  , J
29,2, t, J
18,2, i, J
24,2, o, J
23,2, n, J
101,2,  , J
53,2, R, J
14,2, e, J
29,2, t, J
27,2, r, J
18,2, i, J
14,2, e, J
31,2, v, J
10,2, a, J
21,2, l, J
73,2,",",J
101,2,  , J
54,2, S, J
44,2, I, J
42,2, G, J
44,2, I, J
53,2, R, J
101,2,  , J
9,2,9, J
5,2,5, J
73,2,",",J
101,2,  , J
25,2, p, J
10,2, a, J
16,2, g, J
14,2, e, J
28,2, s, J
101,2,  , J
3,2,3, J
1,2,1, J
9,2,9, J
3,2,3, J
2,2,2, J
7,2,7, J
73,2,",",J
101,2,  , J
49,2, N, J
14,2, e, J
32,2, w, J
101,2,  , J
60,2, Y, J
24,2, o, J
27,2, r, J
20,2, k, J
73,2,",",J
101,2,  , J
49,2, N, J
60,2, Y, J
73,2,",",J
101,2,  , J
56,2, U, J
54,2, S, J
36,2, A, J
73,2,",",J
101,2,  , J
1,3,1, D
9,3,9, D
9,3,9, D
5,3,5, D
75,3, ., D
101,3,  , D
36,2, A, J
38,2, C, J
48,2, M, J
75,2, ., J
101,2,  , J
84,4, [, O
3,4,3, O
86,4, ], O
101,4,  , O
53,0, R, A
75,0, ., A
101,0,  , A
38,0, C, A
24,0, o, A
21,0, l, A
21,0, l, A
24,0, o, A
11,0, b, A
14,0, e, A
27,0, r, A
29,0, t, A
73,0,",",A
101,0,  , A
45,0, J, A
75,0, ., A
101,0,  , A
58,0, W, A
14,0, e, A
28,0, s, A
29,0, t, A
24,0, o, A
23,0, n, A
73,0,",",A
101,0,  , A
47,0, L, A
75,0, ., A
101,0,  , A
37,0, B, A
24,0, o, A
29,0, t, A
29,0, t, A
24,0, o, A
30,0, u, A
73,0,",",A
101,0,  , A
48,0, M, A
75,0, ., A
101,0,  , A
46,0, K, A
10,0, a, A
27,0, r, A
21,0, l, A
14,0, e, A
23,0, n, A
73,0,",",A
101,0,  , A
46,0, K, A
75,0, ., A
101,0,  , A
46,0, K, A
10,0, a, A
31,0, v, A
30,0, u, A
20,0, k, A
12,0, c, A
30,0, u, A
24,0, o, A
16,0, g, A
21,0, l, A
30,0, u, A
73,0,",",A
101,0,  , A
10,0, a, A
23,0, n, A
13,0, d, A
101,0,  , A
51,0, P, A
75,0, ., A
101,0,  , A
46,0, K, A
30,0, u, A
20,0, k, A
28,0, s, A
10,0, a, A
75,0, ., A
101,0,  , A
49,1, N, T
10,1, a, T
29,1, t, T
30,1, u, T
27,1, r, T
10,1, a, T
21,1, l, T
101,1,  , T
21,1, l, T
10,1, a, T
23,1, n, T
16,1, g, T
30,1, u, T
10,1, a, T
16,1, g, T
14,1, e, T
101,1,  , T
25,1, p, T
27,1, r, T
24,1, o, T
74,1, -, T
101,1,  , T
12,1, c, T
14,1, e, T
28,1, s, T
28,1, s, T
18,1, i, T
23,1, n, T
16,1, g, T
101,1,  , T
69,1, (, T
10,1, a, T
21,1, l, T
22,1, m, T
24,1, o, T
28,1, s, T
29,1, t, T
70,1, ), T
101,1,  , T
15,1, f, T
27,1, r, T
24,1, o, T
22,1, m, T
101,1,  , T
28,1, s, T
12,1, c, T
27,1, r, T
10,1, a, T
29,1, t, T
12,1, c, T
17,1, h, T
75,1, ., T
101,1,  , T
45,2, J, J
75,2, ., J
101,2,  , J
48,2, M, J
10,2, a, J
12,2, c, J
17,2, h, J
75,2, ., J
101,2,  , J
47,2, L, J
14,2, e, J
10,2, a, J
27,2, r, J
23,2, n, J
75,2, ., J
101,2,  , J
53,2, R, J
14,2, e, J
28,2, s, J
75,2, ., J
73,2,",",J
101,2,  , J
1,2,1, J
2,2,2, J
77,2, :, J
2,2,2, J
4,2,4, J
9,2,9, J
3,2,3, J
2,2,2, J
5,2,5, J
3,2,3, J
7,2,7, J
73,2,",",J
101,2,  , J
49,2, N, J
24,2, o, J
31,2, v, J
75,2, ., J
101,2,  , J
2,2,2, J
0,2,0, J
1,2,1, J
1,2,1, J
75,2, ., J
101,2,  , J
84,4, [, O
4,4,4, O
86,4, ], O
101,4,  , O
45,0, J, A
75,0, ., A
101,0,  , A
48,0, M, A
75,0, ., A
101,0,  , A
38,0, C, A
24,0, o, A
23,0, n, A
27,0, r, A
24,0, o, A
34,0, y, A
101,0,  , A
10,0, a, A
23,0, n, A
13,0, d, A
101,0,  , A
39,0, D, A
75,0, ., A
101,0,  , A
51,0, P, A
75,0, ., A
101,0,  , A
50,0, O, A
21,0, l, A
14,0, e, A
10,0, a, A
27,0, r, A
34,0, y, A
75,0, ., A
101,0,  , A
55,1, T, T
14,1, e, T
33,1, x, T
29,1, t, T
101,1,  , T
28,1, s, T
30,1, u, T
22,1, m, T
22,1, m, T
10,1, a, T
27,1, r, T
18,1, i, T
35,1, z, T
10,1, a, T
29,1, t, T
18,1, i, T
24,1, o, T
23,1, n, T
101,1,  , T
31,1, v, T
18,1, i, T
10,1, a, T
101,1,  , T
17,1, h, T
18,1, i, T
13,1, d, T
74,1, -, T
101,1,  , T
13,1, d, T
14,1, e, T
23,1, n, T
101,1,  , T
22,1, m, T
10,1, a, T
27,1, r, T
20,1, k, T
24,1, o, T
31,1, v, T
101,1,  , T
22,1, m, T
24,1, o, T
13,1, d, T
14,1, e, T
21,1, l, T
28,1, s, T
75,1, ., T
101,1,  , T
44,2, I, J
23,2, n, J
101,2,  , J
51,2, P, J
27,2, r, J
24,2, o, J
12,2, c, J
14,2, e, J
14,2, e, J
13,2, d, J
18,2, i, J
23,2, n, J
16,2, g, J
28,2, s, J
101,2,  , J
24,2, o, J
15,2, f, J
101,2,  , J
29,2, t, J
17,2, h, J
14,2, e, J
101,2,  , J
2,2,2, J
4,2,4, J
29,2, t, J
17,2, h, J
101,2,  , J
10,2, a, J
23,2, n, J
23,2, n, J
30,2, u, J
10,2, a, J
21,2, l, J
101,2,  , J
18,2, i, J
23,2, n, J
29,2, t, J
14,2, e, J
27,2, r, J
74,2, -, J
101,2,  , J
23,2, n, J
10,2, a, J
29,2, t, J
18,2, i, J
24,2, o, J
23,2, n, J
10,2, a, J
21,2, l, J
101,2,  , J
36,2, A, J
38,2, C, J
48,2, M, J
101,2,  , J
54,2, S, J
44,2, I, J
42,2, G, J
44,2, I, J
53,2, R, J
101,2,  , J
12,2, c, J
24,2, o, J
23,2, n, J
15,2, f, J
14,2, e, J
27,2, r, J
14,2, e, J
23,2, n, J
12,2, c, J
14,2, e, J
101,2,  , J
24,2, o, J
23,2, n, J
101,2,  , J
53,2, R, J
14,2, e, J
28,2, s, J
14,2, e, J
10,2, a, J
27,2, r, J
12,2, c, J
17,2, h, J
101,2,  , J
10,2, a, J
23,2, n, J
13,2, d, J
101,2,  , J
13,2, d, J
14,2, e, J
31,2, v, J
14,2, e, J
21,2, l, J
24,2, o, J
25,2, p, J
74,2, -, J
101,2,  , J
22,2, m, J
14,2, e, J
23,2, n, J
29,2, t, J
101,2,  , J
18,2, i, J
23,2, n, J
101,2,  , J
18,2, i, J
23,2, n, J
15,2, f, J
24,2, o, J
27,2, r, J
22,2, m, J
10,2, a, J
29,2, t, J
18,2, i, J
24,2, o, J
23,2, n, J
101,2,  , J
27,2, r, J
14,2, e, J
29,2, t, J
27,2, r, J
18,2, i, J
14,2, e, J
31,2, v, J
10,2, a, J
21,2, l, J
73,2,",",J
101,2,  , J
25,2, p, J
10,2, a, J
16,2, g, J
14,2, e, J
28,2, s, J
101,2,  , J
4,2,4, J
0,2,0, J
6,2,6, J
4,2,4, J
0,2,0, J
7,2,7, J
75,2, ., J
101,2,  , J
36,2, A, J
38,2, C, J
48,2, M, J
73,2,",",J
101,2,  , J
2,3,2, D
0,3,0, D
0,3,0, D
1,3,1, D
75,3, ., D
101,3,  , D
84,4, [, O
5,4,5, O
86,4, ], O
101,4,  , O
39,0, D, A
75,0, ., A
101,0,  , A
39,0, D, A
10,0, a, A
28,0, s, A
101,0,  , A
10,0, a, A
23,0, n, A
13,0, d, A
101,0,  , A
36,0, A, A
75,0, ., A
101,0,  , A
41,0, F, A
75,0, ., A
101,0,  , A
48,0, M, A
10,0, a, A
27,0, r, A
29,0, t, A
18,0, i, A
23,0, n, A
28,0, s, A
75,0, ., A
101,0,  , A
36,1, A, T
101,1,  , T
28,1, s, T
30,1, u, T
27,1, r, T
31,1, v, T
14,1, e, T
34,1, y, T
101,1,  , T
24,1, o, T
23,1, n, T
101,1,  , T
10,1, a, T
30,1, u, T
29,1, t, T
24,1, o, T
22,1, m, T
10,1, a, T
29,1, t, T
18,1, i, T
12,1, c, T
101,1,  , T
29,1, t, T
14,1, e, T
33,1, x, T
29,1, t, T
101,1,  , T
28,1, s, T
30,1, u, T
22,1, m, T
74,1, -, T
101,1,  , T
22,1, m, T
10,1, a, T
27,1, r, T
18,1, i, T
35,1, z, T
10,1, a, T
29,1, t, T
18,1, i, T
24,1, o, T
23,1, n, T
75,1, ., T
101,1,  , T
47,2, L, J
18,2, i, J
29,2, t, J
14,2, e, J
27,2, r, J
10,2, a, J
29,2, t, J
30,2, u, J
27,2, r, J
14,2, e, J
101,2,  , J
54,2, S, J
30,2, u, J
27,2, r, J
31,2, v, J
14,2, e, J
34,2, y, J
101,2,  , J
15,2, f, J
24,2, o, J
27,2, r, J
101,2,  , J
29,2, t, J
17,2, h, J
14,2, e, J
101,2,  , J
47,2, L, J
10,2, a, J
23,2, n, J
16,2, g, J
30,2, u, J
10,2, a, J
16,2, g, J
14,2, e, J
101,2,  , J
10,2, a, J
23,2, n, J
13,2, d, J
101,2,  , J
54,2, S, J
29,2, t, J
10,2, a, J
29,2, t, J
18,2, i, J
28,2, s, J
29,2, t, J
18,2, i, J
12,2, c, J
28,2, s, J
101,2,  , J
44,2, I, J
44,2, I, J
101,2,  , J
12,2, c, J
24,2, o, J
30,2, u, J
27,2, r, J
28,2, s, J
14,2, e, J
101,2,  , J
10,2, a, J
29,2, t, J
101,2,  , J
38,2, C, J
48,2, M, J
56,2, U, J
73,2,",",J
101,2,  , J
2,3,2, D
0,3,0, D
0,3,0, D
7,3,7, D
75,3, ., D
101,3,  , D
84,4, [, O
6,4,6, O
86,4, ], O
101,4,  , O
54,0, S, A
75,0, ., A
101,0,  , A
39,0, D, A
14,0, e, A
14,0, e, A
27,0, r, A
32,0, w, A
14,0, e, A
28,0, s, A
29,0, t, A
14,0, e, A
27,0, r, A
73,0,",",A
101,0,  , A
54,0, S, A
75,0, ., A
101,0,  , A
55,0, T, A
75,0, ., A
101,0,  , A
39,0, D, A
30,0, u, A
22,0, m, A
10,0, a, A
18,0, i, A
28,0, s, A
73,0,",",A
101,0,  , A
42,0, G, A
75,0, ., A
101,0,  , A
58,0, W, A
75,0, ., A
101,0,  , A
41,0, F, A
30,0, u, A
27,0, r, A
23,0, n, A
10,0, a, A
28,0, s, A
73,0,",",A
101,0,  , A
55,0, T, A
75,0, ., A
101,0,  , A
46,0, K, A
75,0, ., A
101,0,  , A
47,0, L, A
10,0, a, A
23,0, n, A
13,0, d, A
10,0, a, A
30,0, u, A
14,0, e, A
27,0, r, A
73,0,",",A
101,0,  , A
10,0, a, A
23,0, n, A
13,0, d, A
101,0,  , A
53,0, R, A
75,0, ., A
101,0,  , A
43,0, H, A
10,0, a, A
27,0, r, A
28,0, s, A
17,0, h, A
22,0, m, A
10,0, a, A
23,0, n, A
75,0, ., A
101,0,  , A
44,1, I, T
23,1, n, T
13,1, d, T
14,1, e, T
33,1, x, T
18,1, i, T
23,1, n, T
16,1, g, T
101,1,  , T
11,1, b, T
34,1, y, T
101,1,  , T
21,1, l, T
10,1, a, T
29,1, t, T
14,1, e, T
23,1, n, T
29,1, t, T
101,1,  , T
28,1, s, T
14,1, e, T
22,1, m, T
10,1, a, T
23,1, n, T
29,1, t, T
18,1, i, T
12,1, c, T
101,1,  , T
10,1, a, T
23,1, n, T
10,1, a, T
21,1, l, T
34,1, y, T
28,1, s, T
18,1, i, T
28,1, s, T
75,1, ., T
101,1,  , T
45,1, J, T
50,1, O, T
56,1, U, T
53,1, R, T
49,1, N, T
36,1, A, T
47,1, L, T
101,1,  , T
50,1, O, T
41,1, F, T
101,1,  , T
55,1, T, T
43,1, H, T
40,1, E, T
101,1,  , T
36,1, A, T
48,1, M, T
40,1, E, T
53,1, R, T
44,1, I, T
38,1, C, T
36,1, A, T
49,1, N, T
101,1,  , T
54,1, S, T
50,1, O, T
38,1, C, T
44,1, I, T
40,1, E, T
55,1, T, T
60,1, Y, T
101,1,  , T
41,1, F, T
50,1, O, T
53,1, R, T
101,1,  , T
44,1, I, T
49,1, N, T
41,1, F, T
50,1, O, T
53,1, R, T
74,1, -, T
101,1,  , T
48,1, M, T
36,1, A, T
55,1, T, T
44,1, I, T
50,1, O, T
49,1, N, T
101,1,  , T
54,1, S, T
38,1, C, T
44,1, I, T
40,1, E, T
49,1, N, T
38,1, C, T
40,1, E, T
73,1,",",T
101,1,  , T
4,1,4, T
1,1,1, T
69,1, (, T
6,1,6, T
70,1, ), T
77,1, :, T
3,1,3, T
9,1,9, T
1,1,1, T
4,1,4, T
0,1,0, T
7,1,7, T
73,1,",",T
101,1,  , T
1,3,1, D
9,3,9, D
9,3,9, D
0,3,0, D
75,3, ., D
101,3,  , D
84,4, [, O
7,4,7, O
86,4, ], O
101,4,  , O
58,1, W, T
75,1, ., T
101,1,  , T
49,1, N, T
75,1, ., T
101,1,  , T
41,1, F, T
27,1, r, T
10,1, a, T
23,1, n, T
12,1, c, T
18,1, i, T
28,1, s, T
75,1, ., T
101,1,  , T
36,1, A, T
101,1,  , T
28,1, s, T
29,1, t, T
10,1, a, T
23,1, n, T
13,1, d, T
10,1, a, T
27,1, r, T
13,1, d, T
101,1,  , T
28,1, s, T
10,1, a, T
22,1, m, T
25,1, p, T
21,1, l, T
14,1, e, T
101,1,  , T
24,1, o, T
15,1, f, T
101,1,  , T
25,1, p, T
27,1, r, T
14,1, e, T
28,1, s, T
14,1, e, T
23,1, n, T
29,1, t, T
74,1, -, T
13,1, d, T
10,1, a, T
34,1, y, T
101,1,  , T
14,1, e, T
23,1, n, T
16,1, g, T
21,1, l, T
18,1, i, T
28,1, s, T
17,1, h, T
101,1,  , T
15,1, f, T
24,1, o, T
27,1, r, T
101,1,  , T
30,1, u, T
28,1, s, T
14,1, e, T
101,1,  , T
32,1, w, T
18,1, i, T
29,1, t, T
17,1, h, T
101,1,  , T
13,1, d, T
18,1, i, T
16,1, g, T
18,1, i, T
29,1, t, T
10,1, a, T
21,1, l, T
101,1,  , T
12,1, c, T
24,1, o, T
22,1, m, T
25,1, p, T
30,1, u, T
29,1, t, T
14,1, e, T
27,1, r, T
28,1, s, T
75,1, ., T
101,1,  , T
53,2, R, J
14,2, e, J
25,2, p, J
24,2, o, J
27,2, r, J
29,2, t, J
101,2,  , J
29,2, t, J
24,2, o, J
101,2,  , J
29,2, t, J
17,2, h, J
14,2, e, J
101,2,  , J
56,2, U, J
75,2, ., J
54,2, S, J
101,2,  , J
50,2, O, J
15,2, f, J
15,2, f, J
18,2, i, J
12,2, c, J
14,2, e, J
101,2,  , J
24,2, o, J
15,2, f, J
101,2,  , J
40,2, E, J
13,2, d, J
74,2, -, J
101,2,  , J
30,2, u, J
12,2, c, J
10,2, a, J
29,2, t, J
18,2, i, J
24,2, o, J
23,2, n, J
101,2,  , J
24,2, o, J
23,2, n, J
101,2,  , J
38,2, C, J
24,2, o, J
24,2, o, J
25,2, p, J
14,2, e, J
27,2, r, J
10,2, a, J
29,2, t, J
18,2, i, J
31,2, v, J
14,2, e, J
101,2,  , J
53,2, R, J
14,2, e, J
28,2, s, J
14,2, e, J
10,2, a, J
27,2, r, J
12,2, c, J
17,2, h, J
101,2,  , J
51,2, P, J
27,2, r, J
24,2, o, J
19,2, j, J
14,2, e, J
12,2, c, J
29,2, t, J
101,2,  , J
49,2, N, J
24,2, o, J
75,2, ., J
101,2,  , J
40,2, E, J
74,2, -, J
0,2,0, J
0,2,0, J
7,2,7, J
75,2, ., J
101,2,  , J
37,2, B, J
27,2, r, J
24,2, o, J
32,2, w, J
23,2, n, J
101,2,  , J
56,2, U, J
23,2, n, J
18,2, i, J
31,2, v, J
14,2, e, J
27,2, r, J
28,2, s, J
18,2, i, J
29,2, t, J
34,2, y, J
73,2,",",J
101,2,  , J
51,2, P, J
27,2, r, J
24,2, o, J
31,2, v, J
18,2, i, J
13,2, d, J
14,2, e, J
23,2, n, J
12,2, c, J
14,2, e, J
101,2,  , J
53,2, R, J
44,2, I, J
75,2, ., J
73,2,",",J
101,2,  , J
1,3,1, D
9,3,9, D
6,3,6, D
4,3,4, D
75,3, ., D
101,3,  , D
84,4, [, O
8,4,8, O
86,4, ], O
101,4,  , O
58,0, W, A
75,0, ., A
101,0,  , A
49,0, N, A
75,0, ., A
101,0,  , A
41,0, F, A
27,0, r, A
10,0, a, A
23,0, n, A
12,0, c, A
18,0, i, A
28,0, s, A
101,0,  , A
10,0, a, A
23,0, n, A
13,0, d, A
101,0,  , A
43,0, H, A
75,0, ., A
101,0,  , A
46,0, K, A
30,0, u, A
12,0, c, A
14,0, e, A
27,0, r, A
10,0, a, A
75,0, ., A
101,0,  , A
41,1, F, T
27,1, r, T
14,1, e, T
26,1, q, T
30,1, u, T
14,1, e, T
23,1, n, T
12,1, c, T
34,1, y, T
101,1,  , T
10,1, a, T
23,1, n, T
10,1, a, T
21,1, l, T
34,1, y, T
28,1, s, T
18,1, i, T
28,1, s, T
101,1,  , T
24,1, o, T
15,1, f, T
101,1,  , T
14,1, e, T
23,1, n, T
16,1, g, T
21,1, l, T
18,1, i, T
28,1, s, T
17,1, h, T
101,1,  , T
30,1, u, T
28,1, s, T
10,1, a, T
16,1, g, T
14,1, e, T
77,1, :, T
101,1,  , T
47,1, L, T
14,1, e, T
33,1, x, T
18,1, i, T
12,1, c, T
24,1, o, T
23,1, n, T
101,1,  , T
10,1, a, T
23,1, n, T
13,1, d, T
101,1,  , T
16,1, g, T
27,1, r, T
10,1, a, T
22,1, m, T
22,1, m, T
10,1, a, T
27,1, r, T
75,1, ., T
101,1,  , T
43,2, H, J
24,2, o, J
30,2, u, J
16,2, g, J
17,2, h, J
29,2, t, J
24,2, o, J
23,2, n, J
101,2,  , J
48,2, M, J
18,2, i, J
15,2, f, J
15,2, f, J
21,2, l, J
18,2, i, J
23,2, n, J
73,2,",",J
101,2,  , J
1,3,1, D
9,3,9, D
8,3,8, D
2,3,2, D
75,3, ., D
101,3,  , D
84,4, [, O
9,4,9, O
86,4, ], O
101,4,  , O
46,0, K, A
75,0, ., A
101,0,  , A
42,0, G, A
10,0, a, A
23,0, n, A
14,0, e, A
28,0, s, A
10,0, a, A
23,0, n, A
73,0,",",A
101,0,  , A
38,0, C, A
75,0, ., A
101,0,  , A
61,0, Z, A
17,0, h, A
10,0, a, A
18,0, i, A
73,0,",",A
101,0,  , A
10,0, a, A
23,0, n, A
13,0, d, A
101,0,  , A
45,0, J, A
75,0, ., A
101,0,  , A
43,0, H, A
10,0, a, A
23,0, n, A
75,0, ., A
101,0,  , A
50,1, O, T
25,1, p, T
18,1, i, T
23,1, n, T
24,1, o, T
28,1, s, T
18,1, i, T
28,1, s, T
77,1, :, T
101,1,  , T
10,1, a, T
101,1,  , T
16,1, g, T
27,1, r, T
10,1, a, T
25,1, p, T
17,1, h, T
74,1, -, T
11,1, b, T
10,1, a, T
28,1, s, T
14,1, e, T
13,1, d, T
101,1,  , T
10,1, a, T
25,1, p, T
25,1, p, T
27,1, r, T
24,1, o, T
10,1, a, T
12,1, c, T
17,1, h, T
101,1,  , T
29,1, t, T
24,1, o, T
101,1,  , T
10,1, a, T
11,1, b, T
28,1, s, T
29,1, t, T
27,1, r, T
10,1, a, T
12,1, c, T
29,1, t, T
18,1, i, T
31,1, v, T
14,1, e, T
101,1,  , T
28,1, s, T
30,1, u, T
22,1, m, T
22,1, m, T
10,1, a, T
27,1, r, T
18,1, i, T
35,1, z, T
10,1, a, T
29,1, t, T
18,1, i, T
24,1, o, T
23,1, n, T
101,1,  , T
24,1, o, T
15,1, f, T
101,1,  , T
17,1, h, T
18,1, i, T
16,1, g, T
17,1, h, T
21,1, l, T
34,1, y, T
101,1,  , T
27,1, r, T
14,1, e, T
13,1, d, T
30,1, u, T
23,1, n, T
13,1, d, T
10,1, a, T
23,1, n, T
29,1, t, T
101,1,  , T
24,1, o, T
25,1, p, T
18,1, i, T
23,1, n, T
18,1, i, T
24,1, o, T
23,1, n, T
28,1, s, T
75,1, ., T
101,1,  , T
44,2, I, J
23,2, n, J
101,2,  , J
51,2, P, J
27,2, r, J
24,2, o, J
12,2, c, J
14,2, e, J
14,2, e, J
13,2, d, J
18,2, i, J
23,2, n, J
16,2, g, J
28,2, s, J
101,2,  , J
24,2, o, J
15,2, f, J
101,2,  , J
29,2, t, J
17,2, h, J
14,2, e, J
101,2,  , J
2,2,2, J
3,2,3, J
27,2, r, J
13,2, d, J
101,2,  , J
44,2, I, J
23,2, n, J
29,2, t, J
14,2, e, J
27,2, r, J
23,2, n, J
10,2, a, J
29,2, t, J
18,2, i, J
24,2, o, J
23,2, n, J
10,2, a, J
21,2, l, J
101,2,  , J
38,2, C, J
24,2, o, J
23,2, n, J
15,2, f, J
14,2, e, J
27,2, r, J
74,2, -, J
101,2,  , J
14,2, e, J
23,2, n, J
12,2, c, J
14,2, e, J
101,2,  , J
24,2, o, J
23,2, n, J
101,2,  , J
38,2, C, J
24,2, o, J
22,2, m, J
25,2, p, J
30,2, u, J
29,2, t, J
10,2, a, J
29,2, t, J
18,2, i, J
24,2, o, J
23,2, n, J
10,2, a, J
21,2, l, J
101,2,  , J
47,2, L, J
18,2, i, J
23,2, n, J
16,2, g, J
30,2, u, J
18,2, i, J
28,2, s, J
29,2, t, J
18,2, i, J
12,2, c, J
28,2, s, J
73,2,",",J
101,2,  , J
25,2, p, J
10,2, a, J
16,2, g, J
14,2, e, J
28,2, s, J
101,2,  , J
3,2,3, J
4,2,4, J
0,2,0, J
3,2,3, J
4,2,4, J
8,2,8, J
75,2, ., J
101,2,  , J
36,2, A, J
28,2, s, J
28,2, s, J
24,2, o, J
12,2, c, J
18,2, i, J
74,2, -, J
101,2,  , J
10,2, a, J
29,2, t, J
18,2, i, J
24,2, o, J
23,2, n, J
101,2,  , J
15,2, f, J
24,2, o, J
27,2, r, J
101,2,  , J
38,2, C, J
24,2, o, J
22,2, m, J
25,2, p, J
30,2, u, J
29,2, t, J
10,2, a, J
29,2, t, J
18,2, i, J
24,2, o, J
23,2, n, J
10,2, a, J
21,2, l, J
101,2,  , J
47,2, L, J
18,2, i, J
23,2, n, J
16,2, g, J
30,2, u, J
18,2, i, J
28,2, s, J
29,2, t, J
18,2, i, J
12,2, c, J
28,2, s, J
73,2,",",J
101,2,  , J
2,3,2, D
0,3,0, D
1,3,1, D
0,3,0, D
75,3, ., D
101,3,  , D
84,4, [, O
1,4,1, O
0,4,0, O
86,4, ], O
101,0,  , A
54,0, S, A
75,0, ., A
101,0,  , A
43,0, H, A
24,0, o, A
12,0, c, A
17,0, h, A
27,0, r, A
14,0, e, A
18,0, i, A
29,0, t, A
14,0, e, A
27,0, r, A
101,0,  , A
10,0, a, A
23,0, n, A
13,0, d, A
101,0,  , A
45,0, J, A
75,0, ., A
101,0,  , A
54,0, S, A
12,0, c, A
17,0, h, A
22,0, m, A
18,0, i, A
13,0, d, A
17,0, h, A
30,0, u, A
11,0, b, A
14,0, e, A
27,0, r, A
75,0, ., A
101,0,  , A
47,1, L, T
24,1, o, T
23,1, n, T
16,1, g, T
101,1,  , T
28,1, s, T
17,1, h, T
24,1, o, T
27,1, r, T
29,1, t, T
74,1, -, T
29,1, t, T
14,1, e, T
27,1, r, T
22,1, m, T
101,1,  , T
22,1, m, T
14,1, e, T
22,1, m, T
24,1, o, T
27,1, r, T
34,1, y, T
75,1, ., T
47,1, L, T
24,1, o, T
23,1, n, T
16,1, g, T
101,1,  , T
28,1, s, T
17,1, h, T
24,1, o, T
27,1, r, T
29,1, t, T
74,1, -, T
29,1, t, T
14,1, e, T
27,1, r, T
22,1, m, T
101,1,  , T
22,1, m, T
14,1, e, T
22,1, m, T
24,1, o, T
27,1, r, T
34,1, y, T
75,1, ., T
47,1, L, T
24,1, o, T
23,1, n, T
16,1, g, T
101,1,  , T
28,1, s, T
17,1, h, T
24,1, o, T
27,1, r, T
29,1, t, T
74,1, -, T
29,1, t, T
14,1, e, T
27,1, r, T
22,1, m, T
101,1,  , T
22,1, m, T
14,1, e, T
22,1, m, T
24,1, o, T
27,1, r, T
34,1, y, T
75,1, ., T
101,1,  , T
49,2, N, J
14,2, e, J
30,2, u, J
27,2, r, J
10,2, a, J
21,2, l, J
101,2,  , J
12,2, c, J
24,2, o, J
22,2, m, J
25,2, p, J
30,2, u, J
29,2, t, J
10,2, a, J
29,2, t, J
18,2, i, J
24,2, o, J
23,2, n, J
73,2,",",J
101,2,  , J
9,2,9, J
69,2, (, J
8,2,8, J
70,2, ), J
77,2, :, J
1,2,1, J
7,2,7, J
3,2,3, J
5,2,5, J
1,2,1, J
7,2,7, J
8,2,8, J
0,2,0, J
73,2,",",J
101,2,  , J
1,3,1, D
9,3,9, D
9,3,9, D
7,3,7, D
75,3, ., D
101,3,  , D
84,4, [, O
1,4,1, O
1,4,1, O
86,4, ], O
101,0,  , A
53,0, R, A
75,0, ., A
101,0,  , A
46,0, K, A
18,0, i, A
27,0, r, A
24,0, o, A
28,0, s, A
73,0,",",A
101,0,  , A
60,0, Y, A
75,0, ., A
101,0,  , A
61,0, Z, A
17,0, h, A
30,0, u, A
73,0,",",A
101,0,  , A
53,0, R, A
75,0, ., A
101,0,  , A
53,0, R, A
75,0, ., A
101,0,  , A
54,0, S, A
10,0, a, A
21,0, l, A
10,0, a, A
20,0, k, A
17,0, h, A
30,0, u, A
29,0, t, A
13,0, d, A
18,0, i, A
23,0, n, A
24,0, o, A
31,0, v, A
73,0,",",A
101,0,  , A
53,0, R, A
75,0, ., A
101,0,  , A
61,0, Z, A
14,0, e, A
22,0, m, A
14,0, e, A
21,0, l, A
73,0,",",A
101,0,  , A
53,0, R, A
75,0, ., A
101,0,  , A
56,0, U, A
27,0, r, A
29,0, t, A
10,0, a, A
74,0, -, A
101,0,  , A
28,0, s, A
30,0, u, A
23,0, n, A
73,0,",",A
101,0,  , A
36,0, A, A
75,0, ., A
101,0,  , A
55,0, T, A
24,0, o, A
27,0, r, A
27,0, r, A
10,0, a, A
21,0, l, A
11,0, b, A
10,0, a, A
73,0,",",A
101,0,  , A
10,0, a, A
23,0, n, A
13,0, d, A
101,0,  , A
54,0, S, A
75,0, ., A
101,0,  , A
41,0, F, A
18,0, i, A
13,0, d, A
21,0, l, A
14,0, e, A
27,0, r, A
75,0, ., A
101,0,  , A
54,1, S, T
20,1, k, T
18,1, i, T
25,1, p, T
74,1, -, T
29,1, t, T
17,1, h, T
24,1, o, T
30,1, u, T
16,1, g, T
17,1, h, T
29,1, t, T
101,1,  , T
31,1, v, T
14,1, e, T
12,1, c, T
29,1, t, T
24,1, o, T
27,1, r, T
28,1, s, T
75,1, ., T
101,1,  , T
44,2, I, J
23,2, n, J
101,2,  , J
36,2, A, J
13,2, d, J
31,2, v, J
10,2, a, J
23,2, n, J
12,2, c, J
14,2, e, J
28,2, s, J
101,2,  , J
18,2, i, J
23,2, n, J
101,2,  , J
49,2, N, J
14,2, e, J
30,2, u, J
27,2, r, J
10,2, a, J
21,2, l, J
101,2,  , J
44,2, I, J
23,2, n, J
15,2, f, J
24,2, o, J
27,2, r, J
22,2, m, J
10,2, a, J
29,2, t, J
18,2, i, J
24,2, o, J
23,2, n, J
101,2,  , J
51,2, P, J
27,2, r, J
24,2, o, J
12,2, c, J
14,2, e, J
28,2, s, J
28,2, s, J
18,2, i, J
23,2, n, J
16,2, g, J
101,2,  , J
54,2, S, J
34,2, y, J
28,2, s, J
29,2, t, J
14,2, e, J
22,2, m, J
28,2, s, J
73,2,",",J
101,2,  , J
25,2, p, J
10,2, a, J
16,2, g, J
14,2, e, J
28,2, s, J
101,2,  , J
3,2,3, J
2,2,2, J
7,2,7, J
6,2,6, J
3,2,3, J
2,2,2, J
8,2,8, J
4,2,4, J
73,2,",",J
101,2,  , J
2,3,2, D
0,3,0, D
1,3,1, D
5,3,5, D
75,3, ., D
101,3,  , D
84,4, [, O
1,4,1, O
2,4,2, O
86,4, ], O
101,0,  , A
38,0, C, A
75,0, ., A
101,0,  , A
46,0, K, A
27,0, r, A
30,0, u, A
14,0, e, A
23,0, n, A
16,0, g, A
20,0, k, A
27,0, r, A
10,0, a, A
18,0, i, A
101,0,  , A
10,0, a, A
23,0, n, A
13,0, d, A
101,0,  , A
38,0, C, A
75,0, ., A
101,0,  , A
45,0, J, A
10,0, a, A
27,0, r, A
30,0, u, A
28,0, s, A
20,0, k, A
30,0, u, A
21,0, l, A
12,0, c, A
17,0, h, A
10,0, a, A
18,0, i, A
75,0, ., A
101,0,  , A
42,1, G, T
14,1, e, T
23,1, n, T
14,1, e, T
27,1, r, T
18,1, i, T
12,1, c, T
101,1,  , T
29,1, t, T
14,1, e, T
33,1, x, T
29,1, t, T
101,1,  , T
28,1, s, T
30,1, u, T
22,1, m, T
22,1, m, T
10,1, a, T
74,1, -, T
101,1,  , T
27,1, r, T
18,1, i, T
35,1, z, T
10,1, a, T
29,1, t, T
18,1, i, T
24,1, o, T
23,1, n, T
101,1,  , T
30,1, u, T
28,1, s, T
18,1, i, T
23,1, n, T
16,1, g, T
101,1,  , T
21,1, l, T
24,1, o, T
12,1, c, T
10,1, a, T
21,1, l, T
101,1,  , T
10,1, a, T
23,1, n, T
13,1, d, T
101,1,  , T
16,1, g, T
21,1, l, T
24,1, o, T
11,1, b, T
10,1, a, T
21,1, l, T
101,1,  , T
25,1, p, T
27,1, r, T
24,1, o, T
25,1, p, T
14,1, e, T
27,1, r, T
29,1, t, T
18,1, i, T
14,1, e, T
28,1, s, T
101,1,  , T
24,1, o, T
15,1, f, T
101,1,  , T
28,1, s, T
14,1, e, T
23,1, n, T
29,1, t, T
14,1, e, T
23,1, n, T
12,1, c, T
14,1, e, T
28,1, s, T
75,1, ., T
101,1,  , T
44,2, I, J
23,2, n, J
101,2,  , J
51,2, P, J
27,2, r, J
24,2, o, J
12,2, c, J
14,2, e, J
14,2, e, J
13,2, d, J
18,2, i, J
23,2, n, J
16,2, g, J
28,2, s, J
101,2,  , J
24,2, o, J
15,2, f, J
101,2,  , J
29,2, t, J
17,2, h, J
14,2, e, J
101,2,  , J
2,2,2, J
0,2,0, J
0,2,0, J
3,2,3, J
101,2,  , J
44,2, I, J
40,2, E, J
40,2, E, J
40,2, E, J
76,2, /, J
58,2, W, J
44,2, I, J
38,2, C, J
101,2,  , J
44,2, I, J
23,2, n, J
29,2, t, J
14,2, e, J
27,2, r, J
23,2, n, J
10,2, a, J
29,2, t, J
18,2, i, J
24,2, o, J
23,2, n, J
10,2, a, J
21,2, l, J
101,2,  , J
38,2, C, J
24,2, o, J
23,2, n, J
15,2, f, J
14,2, e, J
27,2, r, J
74,2, -, J
101,2,  , J
14,2, e, J
23,2, n, J
12,2, c, J
14,2, e, J
101,2,  , J
24,2, o, J
23,2, n, J
101,2,  , J
58,2, W, J
14,2, e, J
11,2, b, J
101,2,  , J
44,2, I, J
23,2, n, J
29,2, t, J
14,2, e, J
21,2, l, J
21,2, l, J
18,2, i, J
16,2, g, J
14,2, e, J
23,2, n, J
12,2, c, J
14,2, e, J
73,2,",",J
101,2,  , J
58,2, W, J
44,2, I, J
101,2,  , J
0,2,0, J
3,2,3, J
73,2,",",J
101,2,  , J
25,2, p, J
10,2, a, J
16,2, g, J
14,2, e, J
28,2, s, J
101,2,  , J
2,2,2, J
0,2,0, J
1,2,1, J
73,2,",",J
101,2,  , J
58,2, W, J
10,2, a, J
28,2, s, J
17,2, h, J
18,2, i, J
23,2, n, J
16,2, g, J
29,2, t, J
24,2, o, J
23,2, n, J
73,2,",",J
101,2,  , J
39,2, D, J
38,2, C, J
73,2,",",J
101,2,  , J
56,2, U, J
54,2, S, J
36,2, A, J
73,2,",",J
101,2,  , J
2,3,2, D
0,3,0, D
0,3,0, D
3,3,3, D
75,3, ., D
101,3,  , D
44,2, I, J
40,2, E, J
40,2, E, J
40,2, E, J
101,2,  , J
38,2, C, J
24,2, o, J
22,2, m, J
25,2, p, J
30,2, u, J
29,2, t, J
14,2, e, J
27,2, r, J
101,2,  , J
54,2, S, J
24,2, o, J
12,2, c, J
18,2, i, J
14,2, e, J
29,2, t, J
34,2, y, J
75,2, ., J
101,2,  , J
